 *******************
 Basis Size:    1
 *******************
 
 Min Energy:
 -0.499921377153033     
 
 *******************
 Basis Size:    2
 *******************
 
 Min Energy:
 -0.500009291835841     
 
 *******************
 Basis Size:    3
 *******************
 
 Min Energy:
 -0.500096231524131     
 
 *******************
 Basis Size:    4
 *******************
 
 Min Energy:
 -0.500118671043276     
 
 *******************
 Basis Size:    5
 *******************
 
 Min Energy:
 -0.500119438319534     
 
 *******************
 Basis Size:    6
 *******************
 
 Min Energy:
 -0.500119497941439     
 
 *******************
 Basis Size:    7
 *******************
 
 Min Energy:
 -0.500119623110153     
 
 *******************
 Basis Size:    8
 *******************
 
 Min Energy:
 -0.500119847468265     
 
 *******************
 Basis Size:    9
 *******************
 
 Min Energy:
 -0.500119987073994     
 
 *******************
 Basis Size:   10
 *******************
 
 Min Energy:
 -0.500120573533263     
 
 *******************
 Basis Size:   11
 *******************
 
 Min Energy:
 -0.500120623896763     
 
 *******************
 Basis Size:   12
 *******************
 
 Min Energy:
 -0.500120670746346     
 
 *******************
 Basis Size:   13
 *******************
 
 Min Energy:
 -0.500120695631369     
 
 *******************
 Basis Size:   14
 *******************
 
 Min Energy:
 -0.500120710076629     
 
 *******************
 Basis Size:   15
 *******************
 
 Min Energy:
 -0.500120714261817     
 
 *******************
 Basis Size:   16
 *******************
 
 Min Energy:
 -0.500120716901333     
 
 *******************
 Basis Size:   17
 *******************
 
 Min Energy:
 -0.500120717384596     
 
 *******************
 Basis Size:   18
 *******************
 
 Min Energy:
 -0.500120717896664     
 
 *******************
 Basis Size:   19
 *******************
 
 Min Energy:
 -0.500120718336432     
 
 Deleted Basis: 
          38
 
 Final Matrix Size:           19
 
 Basis Order:
          20          19          18          10           1           5
           3           9           8           2           4          16
          17          15           6           7          12          13
          11
