 *******************
 Basis Size:    1
 *******************
 
 Min Energy:
 -0.500094661727951     
 
 *******************
 Basis Size:    2
 *******************
 
 Min Energy:
 -0.500191705980472     
 
 Deleted Basis: 
 
 
 Final Matrix Size:            2
 
 Basis Order:
           1           2
