 *******************
 Basis Size:    1
 *******************
 
 Min Energy:
 -0.474023389059033     
 
 *******************
 Basis Size:    2
 *******************
 
 Min Energy:
 -0.744908968378945     
 
 *******************
 Basis Size:    3
 *******************
 
 Min Energy:
  -1.17325751429677     
 
 *******************
 Basis Size:    4
 *******************
 
 Min Energy:
  -4.35072867214397     
 
 *******************
 Basis Size:    5
 *******************
 
 Min Energy:
  -7.34430910609882     
 
 *******************
 Basis Size:    6
 *******************
 
 Min Energy:
  -8.39674382202879     
 
 *******************
 Basis Size:    7
 *******************
 
 Min Energy:
  -10.3154341585891     
 
 *******************
 Basis Size:    8
 *******************
 
 Min Energy:
  -12.0591435442802     
 
 *******************
 Basis Size:    9
 *******************
 
 Min Energy:
  -50.0693711375758     
 
 *******************
 Basis Size:   10
 *******************
 
 Min Energy:
  -207.044804350945     
 
 *******************
 Basis Size:   11
 *******************
 
 Min Energy:
  -259.741594144844     
 
 *******************
 Basis Size:   12
 *******************
 
 Min Energy:
  -370.327153974444     
 
 *******************
 Basis Size:   13
 *******************
 
 Min Energy:
  -470.050911948237     
 
 *******************
 Basis Size:   14
 *******************
 
 Min Energy:
  -936.793173501612     
 
 *******************
 Basis Size:   15
 *******************
 
 Min Energy:
  -1306.06647688599     
 
 *******************
 Basis Size:   16
 *******************
 
 Min Energy:
  -1580.05980259282     
 
 *******************
 Basis Size:   17
 *******************
 
 Min Energy:
  -2578.59288611909     
 
 *******************
 Basis Size:   18
 *******************
 
 Min Energy:
  -3230.24413675202     
 
 *******************
 Basis Size:   19
 *******************
 
 Min Energy:
  -3665.97001736421     
 
 *******************
 Basis Size:   20
 *******************
 
 Min Energy:
  -3772.44215265186     
 
 Deleted Basis: 
 
 
 Final Matrix Size:           20
 
 Basis Order:
           1          17           2           4          18          13
           5           7          11          16          19          12
           9          14           6          15           3          10
           8          20
