 *******************
 Basis Size:    1
 *******************
 
 Min Energy:
 -0.500237814693436     
 
 *******************
 Basis Size:    2
 *******************
 
 Min Energy:
 -0.523112327113689     
 
 *******************
 Basis Size:    3
 *******************
 
 Min Energy:
 -0.720358509902405     
 
 *******************
 Basis Size:    4
 *******************
 
 Min Energy:
 -0.753645193497892     
 
 *******************
 Basis Size:    5
 *******************
 
 Min Energy:
 -0.809114713370287     
 
 Deleted Basis: 
 
 
 Final Matrix Size:            5
 
 Basis Order:
           1           4           2           3           5
