 *******************
 Basis Size:    1
 *******************
 
 Min Energy:
 -0.499921377153032     
 
 *******************
 Basis Size:    2
 *******************
 
 Min Energy:
 -0.500009291835836     
 
 *******************
 Basis Size:    3
 *******************
 
 Min Energy:
 -0.500096231524137     
 
 *******************
 Basis Size:    4
 *******************
 
 Min Energy:
 -0.500118671039673     
 
 *******************
 Basis Size:    5
 *******************
 
 Min Energy:
 -0.500119433685615     
 
 *******************
 Basis Size:    6
 *******************
 
 Min Energy:
 -0.500119488158656     
 
 *******************
 Basis Size:    7
 *******************
 
 Min Energy:
 -0.500119619192238     
 
 *******************
 Basis Size:    8
 *******************
 
 Min Energy:
 -0.500119878811115     
 
 *******************
 Basis Size:    9
 *******************
 
 Min Energy:
 -0.500120013350642     
 
 *******************
 Basis Size:   10
 *******************
 
 Min Energy:
 -0.500120572631642     
 
 *******************
 Basis Size:   11
 *******************
 
 Min Energy:
 -0.500120629468214     
 
 *******************
 Basis Size:   12
 *******************
 
 Min Energy:
 -0.500120676251795     
 
 *******************
 Basis Size:   13
 *******************
 
 Min Energy:
 -0.500120701084003     
 
 *******************
 Basis Size:   14
 *******************
 
 Min Energy:
 -0.500120714254909     
 
 *******************
 Basis Size:   15
 *******************
 
 Min Energy:
 -0.500120719170137     
 
 *******************
 Basis Size:   16
 *******************
 
 Min Energy:
 -0.500120721761285     
 
 *******************
 Basis Size:   17
 *******************
 
 Min Energy:
 -0.500120721769093     
 
 *******************
 Basis Size:   18
 *******************
 
 Min Energy:
 -0.500120721775127     
 
 *******************
 Basis Size:   19
 *******************
 
 Min Energy:
 -0.500120721777661     
 
 *******************
 Basis Size:   20
 *******************
 
 Min Energy:
 -0.500120721779757     
 
 *******************
 Basis Size:   21
 *******************
 
 Min Energy:
  0.000000000000000E+000
 
 Deleted Basis: 
 
 
 Final Matrix Size:           20
 
 Basis Order:
          20          19          18          10           1           5
           3           9           8           2           4          16
          17          15           6           7          13          12
          14          11
